<?xml version="1.0" standalone="no"?>
<!DOCTYPE svg PUBLIC "-//W3C//DTD SVG 1.1//EN" "http://www.w3.org/Graphics/SVG/1.1/DTD/svg11.dtd" >
<svg xmlns="http://www.w3.org/2000/svg">
<metadata>Generated by IcoMoon</metadata>
<defs>
<font id="icon" horiz-adv-x="1024">
<font-face units-per-em="1024" ascent="960" descent="-64" />
<missing-glyph horiz-adv-x="1024" />
<glyph unicode="&#x20;" horiz-adv-x="512" d="" />
<glyph unicode="&#xe900;" glyph-name="twitter" d="M1024 765.504c-38.080-16.704-78.656-27.776-120.96-33.152 43.52 25.984 76.736 66.816 92.352 116.032-40.576-24.192-85.376-41.28-133.12-50.816-38.528 41.024-93.44 66.432-153.344 66.432-116.224 0-209.792-94.336-209.792-209.984 0-16.64 1.408-32.64 4.864-47.872-174.528 8.512-328.96 92.16-432.704 219.584-18.112-31.424-28.736-67.392-28.736-106.112 0-72.704 37.44-137.152 93.248-174.464-33.728 0.64-66.816 10.432-94.848 25.856 0-0.64 0-1.472 0-2.304 0-102.016 72.768-186.752 168.192-206.272-17.088-4.672-35.712-6.912-55.040-6.912-13.44 0-27.008 0.768-39.744 3.584 27.2-83.136 104.384-144.256 196.16-146.24-71.424-55.872-162.112-89.536-260.288-89.536-17.216 0-33.728 0.768-50.24 2.88 92.992-59.968 203.2-94.208 322.048-94.208 386.304 0 597.504 320 597.504 597.376 0 9.28-0.32 18.24-0.768 27.136 41.664 29.568 76.672 66.496 105.216 108.992z" />
<glyph unicode="&#xe901;" glyph-name="whatsapp" d="M871.844 811.297c-96.195 95.836-224.164 148.648-360.359 148.703-135.891 0-264.063-52.766-360.891-148.578-97-95.977-150.469-223.523-150.594-358.68v-0.25c0.016-81.805 21.508-164.328 62.305-239.656l-60.906-276.836 280.023 63.695c70.922-35.742 150.055-54.586 229.867-54.617h0.203c135.867 0 264.039 52.773 360.883 148.594 97.086 96.055 150.578 223.438 150.641 358.68 0.039 134.289-53.641 261.766-151.172 358.945zM511.484 25h-0.18c-71.664 0.031-142.672 18.023-205.336 52.047l-13.242 7.188-186.203-42.352 40.445 183.813-7.797 13.445c-38.766 66.852-59.25 140.648-59.25 213.438 0.148 235.602 193.727 427.5 431.547 427.5 114.891-0.047 222.844-44.586 303.969-125.398 82.352-82.063 127.688-189.422 127.648-302.305-0.094-235.656-193.711-427.375-431.602-427.375zM372.305 676.273h-22.422c-7.805 0-20.477-2.922-31.195-14.586-10.727-11.672-40.953-39.883-40.953-97.258s41.93-112.813 47.773-120.602c5.852-7.781 80.938-129.281 199.859-176.023 98.836-38.844 118.953-31.117 140.398-29.172 21.453 1.938 69.227 28.203 78.977 55.43s9.75 50.57 6.828 55.445c-2.93 4.859-10.734 7.773-22.43 13.602-11.703 5.836-69.047 34.523-79.773 38.422-10.727 3.883-18.523 5.828-26.328-5.852-7.805-11.656-30.781-38.625-37.609-46.406-6.82-7.789-13.648-8.766-25.352-2.93-11.703 5.852-49 18.383-93.695 58.102-34.789 30.914-58.93 70.336-65.758 82.008-6.82 11.664-0.727 17.977 5.141 23.797 5.258 5.219 12.359 12.359 18.211 19.164 5.844 6.813 7.508 11.672 11.414 19.453 3.898 7.781 1.945 14.594-0.977 20.422-2.93 5.836-25.383 63.5-35.789 86.563h0.008c-8.766 19.422-17.992 20.078-26.328 20.422z" />
<glyph unicode="&#xe902;" glyph-name="webcam" d="M658 86v17.242c-45.977-15.063-95.047-23.242-146-23.242s-100.023 8.18-146 23.242v-17.242c0-49.625-40.375-90-90-90v-60h472v60c-49.625 0-90 40.375-90 90zM512 960c-226.070 0-410-183.922-410-410s183.93-410 410-410 410 183.922 410 410-183.93 410-410 410zM512 280c-148.875 0-270 121.125-270 270s121.125 270 270 270 270-121.125 270-270-121.125-270-270-270zM512 760c-115.797 0-210-94.203-210-210s94.203-210 210-210 210 94.203 210 210-94.203 210-210 210zM422 550h-60c0 82.711 67.289 150 150 150v-60c-49.625 0-90-40.375-90-90zM512 520c-16.57 0-30 13.43-30 30s13.43 30 30 30 30-13.43 30-30-13.43-30-30-30zM596 436c-16.57 0-30 13.43-30 30s13.43 30 30 30 30-13.43 30-30-13.43-30-30-30z" />
<glyph unicode="&#xe903;" glyph-name="search" d="M1011.488 8.835l-291.197 291.197c56.405 69.673 90.367 158.206 90.367 254.632 0 223.486-181.844 405.33-405.33 405.33s-405.328-181.842-405.328-405.328 181.844-405.33 405.33-405.33c96.425 0 184.958 33.962 254.632 90.367l291.197-291.197c8.32-8.32 19.242-12.502 30.166-12.502s21.846 4.182 30.166 12.502c16.682 16.682 16.682 43.648-0.002 60.329zM405.33 234.669c-176.468 0-319.997 143.529-319.997 319.997s143.529 319.997 319.997 319.997 319.997-143.529 319.997-319.997-143.531-319.997-319.997-319.997z" />
<glyph unicode="&#xe904;" glyph-name="play" d="M208.896 937.216c-91.733 52.651-166.144 9.557-166.144-96.256v-780.544c0-105.813 74.411-148.907 166.144-96.256l682.155 391.168c40.391 13.593 68.965 51.118 68.965 95.317s-28.574 81.724-68.258 95.11l-0.707 0.207z" />
<glyph unicode="&#xe905;" glyph-name="pin" d="M512 959.872c-211.977-0.247-383.752-172.022-384-383.976v-0.024c0-283.29 354.304-620.006 369.382-634.214 3.814-3.587 8.965-5.791 14.63-5.791s10.816 2.204 14.641 5.802l-0.011-0.010c15.078 14.208 369.382 350.925 369.382 634.214-0.247 211.987-172.037 383.767-384.003 384h-0.022zM512 362.547c-117.816 0-213.325 95.509-213.325 213.325s95.509 213.325 213.325 213.325c117.816 0 213.325-95.509 213.325-213.325v0c-0.204-117.713-95.603-213.077-213.311-213.222h-0.014z" />
<glyph unicode="&#xe906;" glyph-name="phone" d="M941.753 287.936c-0.29-0.001-0.633-0.001-0.976-0.001-64.943 0-127.399 10.643-185.721 30.281l4.102-1.198c-7.673 2.575-16.508 4.060-25.691 4.060-21.354 0-40.832-8.035-55.575-21.246l0.079 0.069-115.116-86.943c-124.485 62.892-223.155 161.563-284.38 282.417l-1.668 3.63 84.368 112.162c15.021 14.964 24.316 35.667 24.316 58.54 0 9.012-1.443 17.686-4.11 25.805l0.166-0.584c-18.487 54.316-29.158 116.885-29.158 181.946 0 0.335 0 0.67 0.001 1.004v-0.052c-0.043 45.365-36.807 82.128-82.167 82.171h-188.052c-45.365-0.043-82.128-36.807-82.171-82.167v-0.004c0.603-519.888 421.871-941.182 941.691-941.829h0.062c45.365 0.043 82.128 36.807 82.171 82.167v187.521c-0.043 45.38-36.797 82.161-82.163 82.247h-0.008z" />
<glyph unicode="&#xe907;" glyph-name="logo" d="M473.586 631.148c2.894 2.4 5.624 5.038 8.701 7.163 6.961 4.854 8.243 11.559 7.089 19.344-0.769 5.221-2.528 10.332-2.143 15.699 0.256 3.664 0.311 7.474 4.158 9.269s7.566 0 10.57-2.748c8.921-8.078 17.86-16.102 27.056-23.814 6.503-5.496 14.435-8.133 21.817-11.87 10.753-5.496 21.268-11.156 30.518-19.069 14.545-12.475 17.769-26.049 10.167-43.836-5.257-12.31-13.281-22.733-22.458-32.295-13.372-13.959-27.221-27.478-40.502-41.51-12.273-12.969-22.971-27.093-29.163-44.166-3.664-9.947-4.763-20.333-5.715-30.72-4.415-48.562 4.14-95.586 16.981-142.096 6.833-24.73 15.296-48.929 23.191-73.274 0.429-0.777 0.681-1.703 0.681-2.688 0-0.536-0.075-1.055-0.215-1.547l0.010 0.040c-2.75 4.35-5.293 9.369-7.354 14.629l-0.211 0.611c-19.051 42.59-35.245 86.097-45.796 131.673-5.097 20.665-8.393 44.608-9.146 69.191l-0.013 0.529c-0.641 22.788 7.584 41.436 23.557 57.373 13.299 13.263 27.478 25.499 40.887 38.707 15.497 15.351 28.906 32.057 37.022 52.665 6.869 17.439 3.664 27.478-10.24 41.674-4.677 4.578-9.996 8.53-15.801 11.701l-0.374 0.187c-2.876 1.612-4.488 1.374-4.891-2.217-0.207-1.377-0.539-2.611-0.994-3.784l0.041 0.12c-0.919-2.788-3.33-4.837-6.263-5.217l-0.038-0.004c-3.023-0.55-4.799 1.429-6.338 3.664-4.030 5.642-6.338 12.163-9.159 18.428-3.792 8.335-7.181 16.89-12.365 24.51-1.778 2.837-4.092 5.175-6.819 6.927l-0.087 0.053c-2.418 1.429-3.92 0.769-3.829-2.143 0.038-3.504 0.317-6.909 0.82-10.241l-0.050 0.404c2.546-15.699-8.829-27.185-23.301-31.325zM901.834 406.747c3.077 7.181 6.192 14.362 9.251 21.561s6.045 14.252 8.921 21.414c0.627 2.153 2.582 3.699 4.898 3.699 0.211 0 0.418-0.013 0.622-0.038l-0.025 0.002c5.001-0.165 10.020 0 15.039 0 4.451 0 4.763-0.513 2.949-4.744q-15.223-35.3-30.482-70.599c-1.429-3.279-3.041-6.485-4.268-9.855-1.099-3.004-2.62-4.635-6.192-4.598s-6.045 0.843-7.73 4.506c-7.327 15.992-15.058 31.837-22.642 47.738-0.605 1.246-1.301 2.455-2.162 4.067-1.859-2.448-3.418-5.264-4.543-8.292l-0.074-0.227c-6.924-14.472-13.885-28.925-20.553-43.506-1.722-3.792-4.36-4.213-7.895-4.268s-4.781 1.667-5.972 4.415q-17.311 40.301-34.805 80.436c-2.052 4.744-1.923 4.909 3.334 4.946 4.726 0 9.471-0.147 14.178 0 0.225 0.034 0.484 0.053 0.748 0.053 2.408 0 4.443-1.596 5.104-3.789l0.010-0.038c5.496-13.098 10.991-26.122 16.651-39.146 0.531-1.264 0.659-3.297 2.162-3.426s1.832 1.96 2.345 3.169c6.027 12.823 12.072 25.646 17.86 38.579 0.925 2.728 3.462 4.656 6.45 4.656 0.257 0 0.511-0.014 0.761-0.042l-0.031 0.003c13.226 0 13.134 0 18.648-12.054 5.294-11.559 10.771-23.045 16.175-34.567zM22.953 419.258c-0.37-0.905-0.585-1.955-0.585-3.056 0-0.545 0.053-1.078 0.153-1.594l-0.008 0.052c0-14.911-0.128-29.804 0-44.715 0-3.884-1.172-5.496-5.147-5.312s-7.73 0-11.596 0c-5.496 0-5.88 0.348-5.899 5.825q0 38.689 0 77.359c0 0.586 0 1.154 0 1.722 0 2.693 1.154 4.012 3.902 3.792 0.129-0.009 0.279-0.014 0.43-0.014s0.302 0.005 0.451 0.015l-0.020-0.001c16.377 0.366 16.248 0.238 28.32-14.087 10.478-12.145 21.139-24.162 31.709-36.252 0.44-0.513 0.861-1.172 1.832-0.934 1.026 1.356 0.531 2.986 0.55 4.488 0 13.757 0.128 27.478 0 41.271 0 4.213 1.337 6.008 5.715 5.66 1.801-0.136 3.9-0.213 6.018-0.213s4.217 0.077 6.296 0.229l-0.278-0.016c3.792 0.22 4.964-1.282 4.928-5.001-0.128-19.198 0-38.469 0-57.593 0-7.034-0.202-14.050 0-21.066 0.165-4.085-1.502-5.496-5.294-5.129-0.127 0.022-0.273 0.034-0.421 0.034s-0.295-0.012-0.437-0.036l0.015 0.002c-8.921-1.447-15.058 1.832-20.773 9.159-11.577 14.655-24.272 28.595-36.637 42.792-0.824 0.989-1.392 2.4-3.224 2.62zM740.614 453.477c14.307 0 25.646-3.535 35.538-11.486 19.564-15.607 19.894-55.065-5.496-69.61-18.007-10.368-43.396-10.258-59.37 1.612-14.655 10.863-19.344 25.756-16.743 43.195 2.473 16.487 12.493 26.873 27.478 32.863 5.1 2.179 11.033 3.445 17.263 3.445 0.468 0 0.934-0.007 1.398-0.021l-0.068 0.002zM723.175 410.044c0.421-12.072 5.221-21.689 15.974-27.972 0.879-0.684 1.999-1.097 3.215-1.097 0.88 0 1.709 0.216 2.438 0.598l-0.029-0.014c10.991 5.862 17.366 15.058 17.439 27.478s-5.807 21.542-16.816 27.478c-0.931 0.528-2.046 0.838-3.232 0.838-1.361 0-2.626-0.409-3.68-1.11l0.024 0.015c-10.295-5.752-14.783-14.655-15.333-26.214zM257.942 408.89c0 13.171 0.092 26.342 0 39.513 0 3.664 1.062 5.276 4.909 5.056 1.916-0.121 4.156-0.191 6.411-0.191s4.495 0.069 6.716 0.206l-0.305-0.015c3.865 0.22 4.964-1.411 4.873-5.056-0.183-8.591 0-17.183-0.11-25.774 0-3.279 0.898-4.58 4.378-4.543q17.384 0.238 34.805 0c3.517 0 4.378 1.374 4.323 4.598-0.147 8.738 0 17.476-0.092 26.195 0 3.316 1.117 4.69 4.488 4.561 4.433-0.183 8.884-0.22 13.299 0 3.829 0.202 5.001-1.374 4.946-5.019-0.128-12.603 0-25.206 0-37.809q0-19.967 0-39.952c0-5.679-0.311-5.953-6.137-5.99-4.012 0-8.023 0.11-12.035 0-3.279-0.11-4.58 1.191-4.506 4.561 0.147 8.866 0 17.751 0.11 26.617 0 3.535-1.099 4.744-4.671 4.69q-16.981-0.275-33.944 0c-3.792 0-4.983-1.264-4.909-4.983 0.22-8.591 0-17.183 0.128-25.774 0.092-3.664-1.044-5.312-4.854-5.129-4.287 0.183-8.591 0.183-12.823 0-3.81-0.183-4.964 1.575-4.928 5.147 0 13.024-0.055 26.067-0.073 39.092zM238.378 393.173c0-4.726 0-9.452 0-14.178 0.010-0.134 0.016-0.29 0.016-0.447 0-2.229-1.157-4.187-2.903-5.308l-0.025-0.015c-6.576-4.763-14.16-6.906-21.982-8.28-17.128-3.004-33.431-1.044-47.829 9.599-10.721 7.902-17.599 20.48-17.599 34.665 0 16.323 9.108 30.519 22.52 37.782l0.227 0.112c20.498 10.991 41.674 9.159 62.796 1.392 1.745-0.534 2.992-2.131 2.992-4.019 0-0.211-0.016-0.418-0.046-0.62l0.003 0.023q-0.128-6.008 0-12.035c0.092-3.444-1.301-3.865-4.195-2.583-8.623 4.053-18.728 6.419-29.386 6.419-0.366 0-0.732-0.003-1.096-0.008l0.055 0.001c-9.91-0.293-19.088-2.803-25.334-11.321-3.37-4.241-5.406-9.672-5.406-15.58 0-3.789 0.838-7.383 2.339-10.606l-0.065 0.155c4.158-9.709 12.457-14.288 22.66-15.351 1.481-0.199 3.193-0.313 4.932-0.313 4.003 0 7.866 0.603 11.501 1.724l-0.276-0.073c4.616 1.465 3.389 5.038 3.371 8.133 0 3.664-2.876 2.858-5.038 2.913-7.437 0.147-7.804-1.411-7.785 8.115 0 9.965-0.147 8.591 8.536 8.646 7.327 0 14.655-0.165 21.982 0.092 4.048 0.128 5.294-1.447 5.093-5.276-0.238-4.58-0.055-9.141-0.055-13.757zM606.725 409.11c0 13.024 0.092 26.067 0 39.092 0 3.81 1.062 5.349 5.093 5.276 12.035-0.22 24.052 0 36.069-0.128 16.175-0.275 27.826-11.834 27.276-26.891-0.14-7.555-4.268-14.115-10.361-17.679l-0.099-0.053c-2.876-1.832-3.242-3.004-0.531-5.257 2.805-2.579 5.045-5.724 6.547-9.259l0.066-0.175q5.844-12.42 11.577-24.913c1.722-3.792 1.356-4.323-3.004-4.415-1.479 0.064-3.215 0.101-4.959 0.101-2.631 0-5.243-0.083-7.833-0.247l0.354 0.018c-5.734-0.696-8.39 1.832-10.423 6.961-3.070 8.437-6.645 15.688-10.894 22.475l0.288-0.492c-2.821 4.25-6.43 7.126-11.98 7.053-3.297 0-4.635-1.044-4.58-4.433 0.147-8.591 0-17.183 0-25.774 0-5.257-0.421-5.642-5.587-5.697-4.012 0-8.023 0.147-12.017 0-3.664-0.183-5.074 1.172-5.038 4.964 0.147 13.134 0.037 26.324 0.037 39.476zM637.866 436.826v-0.165c-0.512-0.035-1.11-0.055-1.713-0.055s-1.201 0.020-1.793 0.059l0.080-0.004c-3.993 0.531-5.367-1.282-5.111-5.147 0.238-3.535 0-7.126 0-10.68 0-1.63 0.183-3.407 2.308-3.444 4.543-0.092 9.159-0.788 13.592 0.605 4.021 1.026 6.947 4.615 6.947 8.888 0 0.095-0.001 0.19-0.004 0.285v-0.014c0.006 0.122 0.010 0.266 0.010 0.41 0 4.401-3.294 8.032-7.551 8.561l-0.042 0.004c-1.966 0.345-4.307 0.594-6.686 0.692l-0.11 0.004zM520.188 409.348c0 12.823 0.128 25.792 0 38.67 0 4.067 1.264 5.496 5.496 5.496 12.017-0.22 24.070 0 36.106-0.11 19.912-0.348 32.662-18.099 25.792-36.069-3.884-10.185-11.852-15.461-22.55-16.761-3.879-0.418-8.378-0.657-12.933-0.657-1.037 0-2.071 0.012-3.102 0.037l0.153-0.003c-6.265 0-6.283 0-6.283-6.485 0-7.877-0.202-15.772 0-23.631 0.147-4.085-1.484-5.331-5.276-5.166-1.798 0.105-3.901 0.165-6.018 0.165s-4.22-0.060-6.307-0.178l0.289 0.013c-4.213-0.256-5.77 1.612-5.331 5.496 0.004 0.063 0.007 0.137 0.007 0.211s-0.003 0.148-0.007 0.221l0.001-0.010zM542.793 427.373c0-2.436 0-4.854 0-7.327 0-1.832 0.861-2.986 2.803-2.986 4.561 0 9.159-0.495 13.629 0.678 4.065 0.88 7.065 4.445 7.065 8.711 0 0.261-0.011 0.519-0.033 0.774l0.002-0.033c-0.165 4.781-2.418 7.511-7.327 8.536-2.023 0.467-4.357 0.752-6.752 0.787h-0.026c-10.954 0-9.214 1.447-9.361-9.141zM409.215 453.404c12.731 0 25.481-0.147 38.212 0 4.103 0 5.294-1.557 5.038-5.312-0.202-2.986 0-6.008 0-9.013 0-5.496-0.165-5.66-5.899-5.679h-20.15c-5.697 0-5.844-0.128-5.844-5.697q0-28.339 0-56.677c0-6.118-0.238-6.356-6.192-6.393-3.865 0-7.73 0.147-11.577 0s-4.964 1.301-4.946 5.019c0.147 19.179 0 38.359 0 57.556 0 6.228 0 6.247-6.1 6.247-7.163 0-14.325 0-21.469 0-3.096 0-4.415 1.209-4.287 4.36 0.165 3.664 0.183 7.437 0 11.156-0.165 3.407 1.301 4.488 4.58 4.47 12.86-0.11 25.737-0.037 38.634-0.037zM956.13 409.092c0 13.024 0.092 26.067 0 39.092 0 3.755 1.026 5.496 5.129 5.276 1.863-0.136 4.037-0.213 6.228-0.213s4.365 0.077 6.518 0.229l-0.29-0.016c4.067 0.275 5.111-1.465 5.093-5.276-0.147-20.15 0-40.301 0-60.579 0-5.789 0-5.807 5.679-5.825 11.302 0 22.623 0 33.926 0 5.496 0 5.825-0.366 5.77-5.917-0.11-12.292 1.704-11.119-10.826-11.156q-25.151 0-50.266 0c-6.796 0-6.833 0-6.833 7.016q-0.128 18.74-0.128 37.37zM131.764 408.78c0-13.024-0.11-26.067 0-39.092 0-3.664-1.136-5.257-4.909-5.093-4.433 0.202-8.866 0.128-13.317 0-3.041 0-4.415 1.172-4.415 4.305q0 40.172 0 80.345c0 2.839 1.081 4.195 4.067 4.103 4.287-0.128 8.591-0.256 12.823 0s5.789-1.117 5.715-5.496c-0.128-12.969 0.037-25.994 0.037-39.073zM807.275 302.533c0-8.884 0-17.769 0-26.653 0-5.953-0.165-6.247-5.917-6.045-3.132 0.11-6.613-1.319-9.342 1.612-0.256 0.275-1.374 0-1.96-0.348-15.955-7.785-30.958 5.221-30.262 21.982 0.641 15.186 12.823 24.657 27.606 21.194 5.056-1.172 5.074-1.172 5.093 3.884 0 4.14 0 8.298 0 12.457 0 1.008-0.256 2.308 0.275 2.949 3.114 3.829 7.419 1.356 11.174 1.832 2.674 0.293 3.279-1.832 3.279-4.012q0-14.398 0-28.797zM792.528 292.183c0 2.418 0 4.854 0 7.327 0 1.722 0 3.371-1.832 4.47-1.522 0.786-3.322 1.246-5.229 1.246-3.041 0-5.808-1.17-7.876-3.085l0.008 0.007c-4.158-4.616-4.177-15.772 0-20.443 1.84-1.855 4.389-3.003 7.207-3.003 1.363 0 2.664 0.269 3.852 0.756l-0.068-0.025c3.865 1.356 4.085 4.268 3.902 7.584-0.037 1.759 0.055 3.462 0.037 5.184zM736.84 274.909c-4.818-3.792-8.793-6.063-13.867-6.008-9.251 0.128-15.699 5.496-16.248 14.82-0.513 8.994-0.147 18.044-0.183 27.075 0 2.326 1.081 3.352 3.407 3.352 13.134 0 11.193 1.356 11.339-10.148 0-5.587 0-11.174 0-16.761 0-6.118 1.685-8.28 6.137-8.408 0.050-0.001 0.109-0.002 0.168-0.002 4.891 0 8.87 3.903 8.991 8.765v0.011c0.165 7.016 0.275 14.050 0 21.066-0.165 4.396 1.447 5.734 5.734 5.496 9.617-0.366 9.159 1.246 9.159-8.994s-0.11-20.352 0-30.518c0-3.664-1.172-5.367-4.964-4.964-0.707 0.048-1.532 0.076-2.363 0.076s-1.656-0.027-2.474-0.081l0.111 0.006c-2.839 0.018-5.734-0.128-4.946 5.221zM865.069 268.864c-10.661 0.202-18.923 3.664-23.209 13.024-1.569 2.971-2.49 6.493-2.49 10.23 0 5.51 2.002 10.552 5.319 14.439l-0.026-0.031c7.675 9.507 24.528 11.504 35.336 4.305 6.054-4.209 9.967-11.13 9.967-18.965 0-4.078-1.060-7.908-2.92-11.23l0.060 0.116c-4.891-8.848-13.226-11.651-22.037-11.889zM874.467 291.89c-0.16 2.409-0.427 4.596-0.805 6.746l0.054-0.371c-1.191 5.367-3.957 7.767-8.683 7.822s-8.078-2.711-9.379-7.785c-0.516-1.931-0.813-4.148-0.813-6.434 0-2.691 0.411-5.287 1.174-7.726l-0.049 0.183c0.782-3.773 4.078-6.568 8.026-6.568 0.141 0 0.281 0.004 0.42 0.011l-0.020-0.001c0.192-0.015 0.417-0.024 0.643-0.024 3.848 0 7.104 2.535 8.189 6.027l0.016 0.061c0.747 2.406 1.193 5.174 1.227 8.042v0.018zM402.016 548.605c-0.748-2.942-2.012-5.515-3.703-7.747l0.039 0.054c-5.056-7.657-4.891-10.991 1.008-17.97 0.496-0.514 0.838-1.181 0.95-1.922l0.002-0.019c-4.195 2.931-9.159 4.964-11.101 10.35-0.599 1.663-1.678 3.031-3.068 3.975l-0.028 0.018c-1.726 1.046-2.861 2.913-2.861 5.046 0 1.046 0.273 2.028 0.752 2.879l-0.015-0.030c3.242 7.895 4.946 16.487 11.101 23.045 2.088 2.235 1.044 5.496 0.659 8.298-0.573 3.202-0.9 6.889-0.9 10.652s0.327 7.45 0.955 11.033l-0.055-0.381c2.656 13.464 11.174 22.715 21.048 30.958 8.61 7.199 10.515 16.029 7.84 26.25-2.441 7.783-6.389 14.482-11.536 20.058l0.032-0.036c-1.33 1.038-2.261 2.533-2.559 4.246l-0.006 0.041c4.763-3.004 9.068-5.605 13.263-8.408 6.302-4.213 12.457-8.683 18.813-12.823 3.206-2.088 3.407-3.884 0.898-6.796-10.808-12.603-21.396-25.408-32.149-38.066-5.468-5.941-8.821-13.903-8.821-22.648 0-1.808 0.143-3.583 0.419-5.314l-0.025 0.191c1.227-8.463 0.623-16.798-5.899-23.686-3.517-3.664-4.928-8.683-5.679-13.721-0.22-1.356-0.659-3.023 0.989-3.829 0.358-0.128 0.771-0.203 1.201-0.203 1.087 0 2.063 0.473 2.734 1.225l0.003 0.004c1.868 1.557 3.572 3.279 5.697 5.276zM639.057 268.956c-0.33-0.013-0.717-0.020-1.106-0.020-2.626 0-5.175 0.335-7.604 0.964l0.21-0.046c-6.411 1.52-7.126 2.62-6.613 9.159 0.202 2.455 1.136 2.968 3.279 2.143 3.443-1.56 7.465-2.468 11.7-2.468 0.479 0 0.955 0.012 1.428 0.035l-0.067-0.003c1.832 0.147 3.664 0.238 4.103 2.345s-1.264 3.059-2.821 3.81c-3.664 1.704-7.327 3.187-10.991 5.019-5.184 2.656-8.042 6.943-7.327 12.823s4.69 9.342 10.112 10.991c2.586 0.787 5.558 1.241 8.636 1.241 3.722 0 7.29-0.663 10.591-1.877l-0.213 0.068c3.206-1.062 5.257-7.327 3.407-10.057-1.062-1.594-2.308-0.568-3.389 0-3.106 1.804-6.836 2.869-10.814 2.869-0.397 0-0.792-0.011-1.184-0.032l0.055 0.002c-1.465-0.128-3.059-0.33-3.499-1.96-0.513-1.942 1.044-2.839 2.473-3.517 2.711-1.264 5.496-2.271 8.262-3.572 8.463-4.067 11.705-9.69 10.093-17.274-1.392-6.503-7.474-10.57-16.139-10.79zM682.068 293.374c0-1.722 0-3.426 0-5.147 0.092-7.199 3.481-9.69 10.496-8.17 1.704 0.385 4.323 3.517 5.496-0.513 1.374-4.635-0.11-7.95-3.572-9.159-2.783-0.973-5.992-1.535-9.331-1.535-1.49 0-2.955 0.112-4.385 0.328l0.161-0.020c-7.367 0.651-13.1 6.792-13.1 14.273 0 0.096 0.001 0.191 0.003 0.287v-0.014c-0.22 5.496-0.165 10.863 0 16.285 0 2.693-0.44 4.341-3.664 4.341s-3.151 2.18-1.575 4.012q7.95 9.287 16.267 18.318c1.832 1.96 3.077 0.769 3.187-1.539s0.128-4.873 0-7.327 1.062-3.664 3.664-3.664c3.004 0 6.008 0 9.013 0 3.664 0.092 3.517-2.51 3.554-5.001s0-5.019-3.664-4.928c-2.858 0-5.715-0.128-8.573 0s-4.177-1.062-3.975-4.012c0.11-2.235 0-4.525 0-6.814zM509.747 604.787c16.267-22.99 11.119-59.535-14.472-71.13-13.125-5.872-28.367-10.356-44.305-12.707l-0.96-0.116c-9.855-1.594-19.179-4.488-27.478-10.442-6.576-4.763-9.306-3.664-12.127 4.488 0.238 0.11 0.605 0.385 0.714 0.311 5.001-3.664 8.958-1.832 13.299 1.832 6.778 5.697 15.497 7.163 23.814 9.379 10.222 2.711 20.7 4.69 30.702 8.078 17.439 5.88 30.115 16.963 34.329 35.721 1.96 8.72 0.366 17.366-1.539 25.921-0.605 2.894-1.301 5.77-1.978 8.665zM815.976 291.964c0 5.862 0 11.742 0 17.604 0 3.169 0.989 4.708 4.451 4.635 11.486-0.256 10.148 1.319 10.203-9.984 0-9.727 0-19.454 0-29.2 0-3.664-0.953-5.496-5.093-5.312-10.24 0.348-9.599-1.246-9.617 9.379zM417.385 566.136c1.832 6.1 2.913 12.237 4.561 18.227 0.815 3.166 2.794 5.772 5.442 7.389l0.053 0.030c1.087 0.793 2.45 1.268 3.924 1.268 2.002 0 3.799-0.877 5.027-2.269l0.006-0.007c2.803-2.784 2.546-5.935 0.458-8.939-1.44-2.498-3.698-4.388-6.402-5.324l-0.083-0.025c-5.821-1.225-10.546-5.080-12.941-10.237l-0.047-0.113zM823.157 320.559c-0.047-0.001-0.102-0.002-0.157-0.002-4.047 0-7.327 3.281-7.327 7.327 0 0.291 0.017 0.578 0.050 0.86l-0.003-0.034c0.239 4.147 3.661 7.419 7.846 7.419 0.024 0 0.047 0 0.071 0h-0.004c4.176-0.255 7.476-3.67 7.547-7.87v-0.007c-0.018-4.256-3.472-7.699-7.73-7.699-0.103 0-0.206 0.002-0.308 0.006h0.015z" />
<glyph unicode="&#xe908;" glyph-name="money-bag" d="M392-64c88.484 0 156.992 8.469 211.945 25.781-1.164 6.25-1.945 12.641-1.945 19.219 0 29.391 12.219 55.922 31.75 75-19.531 19.078-31.75 45.609-31.75 75s12.219 55.922 31.75 75c-19.531 19.078-31.75 45.609-31.75 75s12.219 55.922 31.75 75c-19.531 19.078-31.75 45.609-31.75 75 0 34.719 17.141 65.32 43.195 84.445-17.844 16.336-36.906 30.977-56.906 43.859 8.125 10.234 13.711 22.617 13.711 36.695 0 33.141-26.859 60-60 60h-300c-33.141 0-60-26.859-60-60 0-14.047 5.57-26.391 13.648-36.609-116.469-75.031-195.648-210.898-195.648-353.391 0-242.023 224.57-270 392-270zM391.68 227.211c-49.633 0-90 40.367-90 90 0 39.18 25.313 72.234 60.32 84.57v44.219c0 16.578 13.422 30 30 30s30-13.422 30-30v-44.422c34.68-12.508 59.68-45.43 59.68-84.367 0-16.586-13.422-30-30-30-16.586 0-30 13.414-30 30 0 16.555-13.453 30-30 30-16.555 0-30-13.445-30-30s13.445-30 30-30c49.625 0 90-40.375 90-90 0-38.938-25-71.859-59.68-84.375v-26.836c0-16.578-13.422-30-30-30s-30 13.422-30 30v26.641c-35.008 12.328-60.32 45.391-60.32 84.57 0 16.578 13.414 30 30 30 16.578 0 30-13.422 30-30 0-16.555 13.445-30 30-30 16.547 0 30 13.445 30 30s-13.453 30-30 30zM979 26h-272c-24.852 0-45-20.148-45-45s20.148-45 45-45h272c24.852 0 45 20.148 45 45s-20.148 45-45 45zM979 176h-272c-24.852 0-45-20.148-45-45s20.148-45 45-45h272c24.852 0 45 20.148 45 45s-20.148 45-45 45zM979 326h-272c-24.852 0-45-20.148-45-45s20.148-45 45-45h272c24.852 0 45 20.148 45 45s-20.148 45-45 45zM979 476h-272c-24.852 0-45-20.148-45-45s20.148-45 45-45h272c24.852 0 45 20.148 45 45s-20.148 45-45 45zM476.477 900c-12.43 34.844-45.414 60-84.477 60-39.109 0-72.477-25.078-84.875-60h-95.125c-9.641 0-18.695-4.625-24.344-12.453-5.625-7.82-7.18-17.898-4.102-27.039l46.836-144.508h323.227l46.828 144.508c3.078 9.141 1.523 19.219-4.102 27.039-5.648 7.828-14.703 12.453-24.344 12.453z" />
<glyph unicode="&#xe909;" glyph-name="board" d="M183.706-68.096c-0.214-0.003-0.467-0.004-0.721-0.004-35.082 0-63.522 28.44-63.522 63.522 0 0.253 0.001 0.507 0.004 0.759v-0.039 771.072c0.039 35.469 28.772 64.215 64.233 64.273h64.279v-96.358c0.058-53.201 43.16-96.315 96.351-96.393h321.305c53.198 0.078 96.3 43.192 96.358 96.387v96.364h64.273c0.214 0.003 0.467 0.004 0.721 0.004 35.101 0 63.556-28.455 63.556-63.556 0-0.253-0.001-0.507-0.004-0.759v0.038-771.072c0.002-0.204 0.004-0.445 0.004-0.687 0-35.101-28.455-63.556-63.556-63.556-0.253 0-0.506 0.001-0.759 0.004h0.038zM257.331 243.746c-5.807-5.817-9.397-13.847-9.397-22.716s3.591-16.899 9.398-22.716v0l64.273-64.273c5.835-5.794 13.874-9.375 22.75-9.375s16.915 3.581 22.752 9.377l128.51 128.51c5.815 5.819 9.411 13.856 9.411 22.733 0 17.762-14.399 32.161-32.161 32.161-8.885 0-16.929-3.603-22.75-9.428l-105.814-105.814-41.574 41.54c-5.82 5.798-13.849 9.383-22.716 9.383s-16.895-3.585-22.717-9.384l0.001 0.001zM569.242 221.082c0-17.746 14.376-32.134 32.118-32.154h128.548c17.749 0 32.137 14.388 32.137 32.137s-14.388 32.137-32.137 32.137v0h-128.546c-17.739 0-32.119-14.38-32.119-32.119v0zM257.331 500.804c-5.809-5.822-9.4-13.858-9.4-22.733s3.592-16.911 9.401-22.733l64.272-64.238c5.828-5.81 13.869-9.403 22.75-9.403s16.922 3.593 22.751 9.404l128.511 128.511c5.582 5.776 9.021 13.653 9.021 22.333 0 17.758-14.396 32.154-32.154 32.154-8.697 0-16.588-3.453-22.376-9.063l-105.805-105.805-41.574 41.54c-5.824 5.79-13.852 9.369-22.716 9.369s-16.892-3.579-22.717-9.371l0.002 0.002zM569.242 478.106c0.019-17.731 14.388-32.1 32.118-32.119h128.548c17.749 0 32.137 14.388 32.137 32.137s-14.388 32.137-32.137 32.137v0h-128.546c-17.743-0.019-32.12-14.408-32.12-32.154 0-0.024 0-0.048 0-0.072v0.004zM344.337 703.010c-17.731 0.019-32.1 14.388-32.119 32.118v128.616c0.019 17.731 14.388 32.1 32.118 32.119h69.736c13.663 37.725 49.18 64.194 90.88 64.194s77.217-26.47 90.667-63.523l0.213-0.671h69.803c17.731-0.019 32.1-14.388 32.119-32.118v-128.514c-0.019-17.731-14.388-32.1-32.118-32.119h-0.002z" />
<glyph unicode="&#xe90a;" glyph-name="letter" d="M554.176 756.011h145.835v-416.256c0.019-1.013 0.029-2.208 0.029-3.405 0-36.811-9.994-71.287-27.416-100.865l0.507 0.931c-18.007-30.165-43.507-54.186-73.982-69.919l-1.026-0.481c-30.283-15.773-66.131-25.024-104.14-25.024-1.106 0-2.21 0.008-3.312 0.023l0.167-0.002q-99.157 0-154.176 50.005c-34.144 33.078-55.337 79.35-55.337 130.572 0 3.906 0.123 7.783 0.366 11.628l-0.027-0.526h146.667c-0.211-2.436-0.331-5.271-0.331-8.135 0-19.337 5.474-37.396 14.957-52.711l-0.248 0.429c10.47-11.702 25.618-19.033 42.478-19.033 1.99 0 3.956 0.102 5.893 0.301l-0.243-0.020c0.796-0.042 1.729-0.065 2.667-0.065 18.177 0 34.273 8.912 44.156 22.604l0.11 0.16c10.436 16.196 16.637 35.977 16.637 57.205 0 2.233-0.069 4.45-0.204 6.648l0.015-0.302z" />
<glyph unicode="&#xe90b;" glyph-name="internet" d="M530.302-63.393c78.305 11.125 146.951 92.853 190.147 213.55-62.444 13.985-126.166 21.491-190.147 22.384zM655.404-44.199c4.629 1.34 9.24 2.69 13.815 4.173 3.86 1.242 7.667 2.582 11.474 3.914 4.504 1.555 8.99 3.154 13.457 4.852 3.807 1.448 7.578 2.985 11.358 4.522 4.361 1.832 8.713 3.655 13.020 5.487 3.762 1.653 7.497 3.387 11.232 5.129 4.227 1.993 8.436 4.021 12.609 6.13 3.664 1.868 7.319 3.771 10.982 5.728 4.102 2.198 8.176 4.441 12.224 6.747 3.664 2.073 7.193 4.155 10.759 6.3 3.968 2.44 7.917 4.879 11.84 7.319 3.512 2.234 7.015 4.504 10.473 6.845 3.86 2.6 7.667 5.308 11.456 8.016 3.405 2.44 6.791 4.87 10.115 7.319 3.664 2.824 7.417 5.746 11.089 8.677 3.262 2.6 6.514 5.183 9.722 7.855 3.655 3.038 7.158 6.184 10.705 9.329 3.11 2.761 6.237 5.496 9.275 8.328 3.494 3.262 6.899 6.639 10.303 9.99 2.949 2.913 5.933 5.782 8.82 8.766 0.536 0.554 1.046 1.153 1.6 1.725-39.917 20.615-81.96 36.798-125.398 48.254-22.59-72.041-62.793-137.327-116.962-189.924 1.483 0.384 2.967 0.697 4.45 1.081 3.914 1.099 7.756 2.305 11.581 3.44zM1024.002 429.279h-219.43c-0.831-85.678-13.261-170.846-36.95-253.19 48.308-12.903 94.926-31.454 138.891-55.269 72.184 87 113.504 195.473 117.489 308.459zM530.302 465.881h237.668c-0.929 82.648-13.055 164.787-36.030 244.183-66.179-15.093-133.771-23.153-201.639-24.047zM530.302 958.553v-235.935c63.981 0.903 127.703 8.4 190.147 22.384-43.196 120.697-111.842 202.425-190.147 213.55zM530.302 209.143c67.868-0.903 135.459-8.963 201.639-24.055 22.974 79.396 35.1 161.543 36.030 244.192h-237.668zM906.512 774.339c-43.965-23.814-90.583-42.365-138.891-55.269 23.689-82.344 36.119-167.513 36.95-253.19h219.43c-3.994 112.977-45.314 221.45-117.489 308.459zM881.787 802.103c-0.536 0.545-1.046 1.135-1.573 1.698-2.895 2.985-5.898 5.862-8.847 8.766-3.396 3.351-6.782 6.738-10.285 9.99-3.029 2.824-6.166 5.496-9.275 8.31-3.548 3.145-7.095 6.318-10.741 9.356-3.163 2.672-6.407 5.228-9.624 7.792-3.664 2.967-7.417 5.916-11.188 8.748-3.306 2.493-6.657 4.906-10.026 7.319-3.825 2.752-7.667 5.496-11.563 8.114-3.422 2.305-6.899 4.557-10.375 6.764-3.959 2.547-7.908 5.040-11.938 7.453-3.53 2.118-7.095 4.209-10.669 6.237-4.093 2.341-8.194 4.611-12.332 6.827-3.664 1.832-7.319 3.825-10.982 5.656-4.209 2.127-8.453 4.173-12.805 6.184-3.664 1.743-7.381 3.44-11.152 5.093-4.334 1.921-8.713 3.655-13.082 5.487-3.771 1.537-7.524 3.056-11.331 4.504-4.441 1.698-8.945 3.288-13.449 4.843-3.807 1.34-7.613 2.672-11.474 3.923-4.575 1.483-9.15 2.833-13.851 4.191-3.807 1.117-7.631 2.252-11.483 3.271-1.474 0.402-2.976 0.715-4.459 1.099 54.169-52.597 94.363-117.874 116.962-189.924 43.482 11.456 85.588 27.648 125.541 48.299zM0 465.881h219.43c0.831 85.678 13.261 170.846 36.941 253.19-48.299 12.895-94.917 31.445-138.882 55.269-72.184-87-113.504-195.482-117.489-308.459zM493.7-63.393v235.935c-63.981-0.903-127.703-8.4-190.147-22.384 43.187-120.697 111.842-202.425 190.147-213.55zM493.7 429.279h-237.668c0.929-82.648 13.046-164.796 36.030-244.192 66.179 15.102 133.762 23.162 201.639 24.055zM493.7 958.553c-78.305-11.125-146.96-92.853-190.147-213.55 62.444-13.994 126.166-21.491 190.147-22.384zM493.7 686.017c-67.868 0.894-135.459 8.954-201.639 24.047-22.983-79.396-35.1-161.534-36.030-244.183h237.668zM384.575 943.747c-1.483-0.384-2.967-0.697-4.45-1.081-3.878-1.037-7.703-2.189-11.563-3.306-4.593-1.34-9.15-2.69-13.761-4.155-3.887-1.26-7.712-2.6-11.536-3.932-4.477-1.582-8.963-3.154-13.395-4.834-3.825-1.465-7.596-2.985-11.384-4.539-4.352-1.832-8.713-3.664-13.011-5.487-3.771-1.653-7.497-3.387-11.232-5.129-4.227-1.993-8.436-4.021-12.609-6.13-3.664-1.868-7.327-3.78-10.982-5.728-4.102-2.198-8.167-4.45-12.206-6.756-3.664-2.046-7.265-4.146-10.795-6.291-3.976-2.395-7.908-4.87-11.822-7.319-3.521-2.252-7.015-4.522-10.473-6.863-3.86-2.6-7.667-5.308-11.456-8.016-3.405-2.44-6.791-4.87-10.124-7.327-3.744-2.815-7.319-5.746-11.089-8.668-3.253-2.6-6.532-5.183-9.713-7.873-3.664-3.020-7.14-6.148-10.669-9.275-3.128-2.788-6.282-5.496-9.338-8.382-3.476-3.244-6.863-6.613-10.258-9.955-2.949-2.913-5.951-5.79-8.847-8.784-0.527-0.554-1.037-1.162-1.591-1.725 39.908-20.624 81.96-36.807 125.398-48.263 22.59 72.006 62.766 137.247 116.909 189.817zM152.625 82.593c3.405-3.351 6.791-6.738 10.285-9.999 3.038-2.815 6.166-5.487 9.284-8.301 3.548-3.154 7.095-6.318 10.741-9.356 3.163-2.654 6.389-5.219 9.624-7.792 3.664-2.967 7.319-5.916 11.197-8.766 3.297-2.475 6.648-4.87 9.999-7.327 3.825-2.743 7.685-5.487 11.581-8.123 3.422-2.305 6.899-4.557 10.375-6.773 3.959-2.538 7.908-5.031 11.938-7.444 3.53-2.127 7.095-4.209 10.669-6.246 4.093-2.341 8.194-4.611 12.332-6.818 3.655-1.832 7.319-3.825 10.982-5.656 4.209-2.127 8.453-4.173 12.805-6.193 3.664-1.725 7.381-3.422 11.152-5.085 4.334-1.921 8.704-3.655 13.082-5.487 3.771-1.537 7.524-3.056 11.331-4.504 4.441-1.707 8.945-3.297 13.449-4.852 3.807-1.331 7.613-2.672 11.474-3.914 4.575-1.483 9.15-2.842 13.851-4.191 3.807-1.117 7.631-2.252 11.474-3.279 1.483-0.402 2.985-0.715 4.468-1.099-54.169 52.606-94.363 117.883-116.962 189.933-43.437-11.465-85.49-27.648-125.398-48.281 0.536-0.545 1.046-1.135 1.582-1.698 2.743-2.967 5.701-5.844 8.686-8.748zM117.489 120.821c43.965 23.814 90.583 42.365 138.882 55.269-23.68 82.344-36.11 167.513-36.941 253.19h-219.43c3.994-112.977 45.305-221.45 117.489-308.459z" />
<glyph unicode="&#xe90c;" glyph-name="facebook" d="M774.016 959.936h-129.088c-3.897 0.239-8.452 0.376-13.039 0.376-125.090 0-226.496-101.406-226.496-226.496 0-6.485 0.273-12.906 0.807-19.253l-0.056 0.829v-112.768h-129.792c-11.205 0-20.288-9.083-20.288-20.288v0-163.392c0-11.205 9.083-20.288 20.288-20.288v0h129.792v-412.288c0-11.205 9.083-20.288 20.288-20.288v0h169.472c11.205 0 20.288 9.083 20.288 20.288v0 412.352h151.808c11.205 0 20.288 9.083 20.288 20.288v163.328c0 11.205-9.083 20.288-20.288 20.288v0h-151.808v95.616c0 45.952 10.944 69.312 70.912 69.312h86.976c11.155 0.036 20.188 9.069 20.224 20.221v151.683c0.001 0.057 0.001 0.124 0.001 0.192 0 11.205-9.083 20.288-20.288 20.288 0 0-0.001 0-0.001 0v0z" />
<glyph unicode="&#xe90d;" glyph-name="agree" d="M1004.521 743.253c-3.363 2.399-7.557 3.836-12.087 3.836-2.596 0-5.083-0.472-7.377-1.335l0.144 0.048-172.146-62.623c-25.551-8.894-44.928-29.57-51.845-55.347l-0.129-0.564c-53.575 15.292-99.726 33.71-143.482 56.139l4.4-2.049c-70.542 36.409-130.048 31.676-198.337-19.684-27.466-0.455-65.832-3.755-103.47-7.077-23.666-2.094-46.034-4.028-64.193-5.12-1.475 34.9-23.901 64.205-54.962 75.768l-0.584 0.191-172.146 62.623c-2.146 0.805-4.625 1.27-7.214 1.27-11.661 0-21.115-9.452-21.117-21.113v0-422.434c0-11.663 9.454-21.117 21.117-21.117v0h61.668c26.861 0.098 50.771 12.652 66.266 32.183l0.134 0.176c8.397-6.394 18.364-13.881 28.786-21.709 24.644-18.523 51.61-38.684 63.442-48.697 78.62-65.832 173.147-136.943 191.966-149.322 20.841-13.425 45.921-22.072 72.882-23.824l0.459-0.024c1.503-0.104 3.258-0.163 5.027-0.163 16.788 0 32.33 5.338 45.020 14.409l-0.235-0.16c7.421-3.034 16.033-4.795 25.056-4.795 10.090 0 19.666 2.202 28.273 6.153l-0.423-0.174c17.414 8.081 31.091 21.765 38.959 38.697l0.204 0.488c4.52-0.881 9.717-1.385 15.032-1.385 13.731 0 26.676 3.365 38.055 9.315l-0.453-0.216c15.156 7.324 27.086 19.327 34.129 34.107l0.187 0.435c1.264-0.086 2.741-0.135 4.228-0.135 15.94 0 30.569 5.615 42.016 14.974l-0.119-0.094c17.099 12.595 28.069 32.651 28.069 55.27 0 2.599-0.145 5.163-0.427 7.687l0.028-0.31 53.567 29.582c15.452-21.023 40.020-34.564 67.76-34.748h61.697c0.007 0 0.015 0 0.023 0 11.65 0 21.094 9.444 21.094 21.094 0 0.008 0 0.016 0 0.024v-0.001 422.434c0 0.022 0 0.048 0 0.074 0 7.097-3.505 13.376-8.878 17.199l-0.065 0.044zM756.099 258.423c-7.145-5.507-17.18-8.556-21.641-4.096-0.228 0.228-0.569 0.205-0.819 0.432s-0.614 0.887-1.047 1.229c-15.087 11.924-82.716 81.146-124.518 124.769-3.88 4.287-9.466 6.97-15.677 6.97-11.663 0-21.117-9.454-21.117-21.117 0-5.901 2.42-11.236 6.322-15.068l0.003-0.003c9.808-10.24 88.565-92.297 120.081-120.991-2.607-7.668-8.093-13.769-15.138-17.128l-0.176-0.076c-4.861-3.043-10.766-4.847-17.093-4.847-5.805 0-11.255 1.519-15.974 4.181l0.163-0.084c-0.159 0.137-0.387 0.137-0.546 0.296s-0.364 0.546-0.637 0.774c-25.327 20.23-88.747 87.768-103.219 103.401-3.887 4.377-9.53 7.122-15.814 7.122-11.663 0-21.117-9.454-21.117-21.117 0-5.661 2.228-10.802 5.854-14.594l-0.007 0.008c0.683-0.751 62.942-67.925 97.849-99.146-3.281-9.794-10.247-17.597-19.211-21.908l-0.223-0.097c-3.233-1.438-7.005-2.275-10.972-2.275-6.839 0-13.098 2.487-17.92 6.607l0.038-0.032c-30.31 25.714-91.182 90.522-103.151 103.333-3.848 3.997-9.245 6.48-15.221 6.48-11.663 0-21.117-9.454-21.117-21.117 0-5.473 2.082-10.459 5.497-14.211l-0.015 0.017c14.199-15.178 56.138-59.665 88.018-89.771-3.242-0.417-7.010-0.665-10.832-0.683h-0.023c-18.75 1.86-35.768 7.917-50.544 17.213l0.482-0.283c-14.814 9.739-107.77 79.121-188.029 146.364-12.151 10.194-39.845 31.061-65.217 50.062-13.653 10.217-26.123 19.638-35.339 26.715l79.053 210.921c20.48 0.887 47.787 3.254 76.846 5.825 16.384 1.456 32.768 2.844 48.424 4.073-24.075-24.713-59.87-69.018-55.159-110.546 2.373-19.515 13.677-35.97 29.638-45.356l0.286-0.155c9.797-5.881 21.619-9.359 34.252-9.359 0.702 0 1.402 0.011 2.099 0.032l-0.102-0.002c37.102 0.858 70.144 17.541 92.757 43.537l0.131 0.154c17.831 2.497 33.942 7.838 48.584 15.585l-0.797-0.385c24.735-23.256 57.913-50.608 92.774-79.349 60.666-50.062 129.434-106.678 147.615-138.468 2.053-3.588 3.264-7.886 3.264-12.467 0-8.921-4.592-16.769-11.541-21.311l-0.097-0.060z" />
<glyph unicode="&#xe90e;" glyph-name="check" d="M0 448.009c0.321 282.645 229.363 511.687 511.977 512.009h0.031c21.312 0 38.589-17.277 38.589-38.589s-17.277-38.589-38.589-38.589v0c-0.005 0-0.011 0-0.017 0-240.14 0-434.812-194.672-434.812-434.812s194.672-434.812 434.812-434.812c240.14 0 434.812 194.672 434.812 434.812v0c-0.005 0.242-0.009 0.527-0.009 0.813 0 21.322 17.285 38.607 38.607 38.607s38.607-17.285 38.607-38.607c0-0.286-0.003-0.571-0.009-0.855l0.001 0.042c-1.68-281.498-230.267-509.047-512-509.047s-510.32 227.549-511.999 508.887l-0.001 0.16zM475.166 264.053c-10.914 0.237-20.679 4.968-27.552 12.409l-0.024 0.026-194.249 210.966c-6.325 6.853-10.203 16.047-10.203 26.146 0 21.319 17.282 38.601 38.601 38.601 11.22 0 21.321-4.787 28.374-12.429l0.024-0.026 167.033-181.42 462.988 461.755c7.010 7.15 16.769 11.581 27.563 11.581 21.312 0 38.589-17.277 38.589-38.589 0-10.837-4.467-20.63-11.66-27.639l-0.008-0.008-491.404-490.119c-6.986-6.949-16.616-11.247-27.249-11.253h-0.001z" />
<glyph unicode="&#xe90f;" glyph-name="calendar" d="M539.936 178.058c0.029 133.635 108.368 241.955 242.007 241.955 133.657 0 242.007-108.35 242.007-242.007s-108.35-242.007-242.007-242.007v0c-133.604 0.175-241.861 108.45-242.007 242.044v0.014zM619.905 178.058c0-0.015 0-0.033 0-0.051 0-89.462 72.524-161.986 161.986-161.986s161.986 72.524 161.986 161.986c0 89.462-72.524 161.986-161.986 161.986v0c-89.452-0.058-161.965-72.499-162.139-161.918v-0.017zM159.939-64c-88.331 0.116-159.903 71.706-159.99 160.033v624.211c0.087 88.325 71.665 159.903 159.982 159.99h49.996v39.959c-0.016 0.427-0.026 0.927-0.026 1.431 0 22.097 17.913 40.010 40.010 40.010s40.010-17.913 40.010-40.010c0-0.503-0.009-1.004-0.028-1.503l0.002 0.072v-39.959h179.996v39.959c-0.016 0.427-0.026 0.927-0.026 1.431 0 22.097 17.913 40.010 40.010 40.010s40.010-17.913 40.010-40.010c0-0.503-0.009-1.004-0.028-1.503l0.002 0.072v-39.959h182.042v39.959c-0.016 0.427-0.026 0.927-0.026 1.431 0 22.097 17.913 40.010 40.010 40.010s40.010-17.913 40.010-40.010c0-0.503-0.009-1.004-0.028-1.503l0.002 0.072v-39.959h51.983c88.336-0.087 159.925-71.659 160.042-159.979v-227.999c0-22.097-17.913-40.010-40.010-40.010s-40.010 17.913-40.010 40.010v0 227.988c-0.029 44.154-35.815 79.941-79.967 79.97h-51.986v-39.959c0.016-0.427 0.026-0.927 0.026-1.431 0-22.097-17.913-40.010-40.010-40.010s-40.010 17.913-40.010 40.010c0 0.503 0.009 1.004 0.028 1.503l-0.002-0.072v39.959h-182.042v-39.959c0.016-0.427 0.026-0.927 0.026-1.431 0-22.097-17.913-40.010-40.010-40.010s-40.010 17.913-40.010 40.010c0 0.503 0.009 1.004 0.028 1.503l-0.002-0.072v39.959h-179.996v-39.959c0.016-0.427 0.026-0.927 0.026-1.431 0-22.097-17.913-40.010-40.010-40.010s-40.010 17.913-40.010 40.010c0 0.503 0.009 1.004 0.028 1.503l-0.002-0.072v39.959h-49.987c-44.154-0.029-79.941-35.815-79.97-79.967v-624.206c0.058-44.153 35.821-79.934 79.961-80.021h305.97c22.097 0 40.010-17.913 40.010-40.010s-17.913-40.010-40.010-40.010c0 0 0 0 0 0v0zM781.891 138.047c-22.075 0.029-39.959 17.931-39.959 40.010 0 0 0 0 0 0v0 81.863c-0.016 0.427-0.026 0.927-0.026 1.431 0 22.097 17.913 40.010 40.010 40.010s40.010-17.913 40.010-40.010c0-0.503-0.009-1.004-0.028-1.503l0.002 0.072v-42.006h18.010c0.427 0.016 0.927 0.026 1.431 0.026 22.097 0 40.010-17.913 40.010-40.010s-17.913-40.010-40.010-40.010c-0.503 0-1.004 0.009-1.503 0.028l0.072-0.002zM383.885 191.821c0 22.041 17.867 39.908 39.908 39.908s39.908-17.867 39.908-39.908c0-22.041-17.867-39.908-39.908-39.908-0.018 0-0.036 0-0.054 0h0.003c-22.019 0.029-39.857 17.885-39.857 39.908 0 0 0 0 0 0v0zM209.927 191.821c0 22.041 17.867 39.908 39.908 39.908s39.908-17.867 39.908-39.908c0-22.041-17.867-39.908-39.908-39.908v0c-22.041 0-39.908 17.867-39.908 39.908v0zM383.885 365.779c0 22.041 17.867 39.908 39.908 39.908s39.908-17.867 39.908-39.908c0-22.041-17.867-39.908-39.908-39.908-0.018 0-0.036 0-0.054 0h0.003c-22.019 0.029-39.857 17.885-39.857 39.908 0 0 0 0 0 0v0zM209.927 365.779c0 22.041 17.867 39.908 39.908 39.908s39.908-17.867 39.908-39.908c0-22.041-17.867-39.908-39.908-39.908v0c-22.041 0-39.908 17.867-39.908 39.908v0zM731.801 540.249c0 22.041 17.867 39.908 39.908 39.908s39.908-17.867 39.908-39.908c0-22.041-17.867-39.908-39.908-39.908v0c-0.015 0-0.033 0-0.051 0-22.012 0-39.857 17.845-39.857 39.857 0 0.018 0 0.036 0 0.054v-0.003zM557.843 540.249c0 22.041 17.867 39.908 39.908 39.908s39.908-17.867 39.908-39.908c0-22.041-17.867-39.908-39.908-39.908-0.018 0-0.036 0-0.054 0h0.003c-22.012 0-39.857 17.845-39.857 39.857 0 0.018 0 0.036 0 0.054v-0.003zM383.885 540.249c0 22.041 17.867 39.908 39.908 39.908s39.908-17.867 39.908-39.908c0-22.041-17.867-39.908-39.908-39.908-0.018 0-0.036 0-0.054 0h0.003c-22.012 0-39.857 17.845-39.857 39.857 0 0.018 0 0.036 0 0.054v-0.003zM209.927 540.249c0 22.041 17.867 39.908 39.908 39.908s39.908-17.867 39.908-39.908c0-22.041-17.867-39.908-39.908-39.908v0c-0.015 0-0.033 0-0.051 0-22.012 0-39.857 17.845-39.857 39.857 0 0.018 0 0.036 0 0.054v-0.003z" />
<glyph unicode="&#xe910;" glyph-name="arrow-right" horiz-adv-x="1017" d="M432.476 940.947c-11.768-11.755-19.048-28.002-19.048-45.949s7.28-34.194 19.047-45.948l336.106-336.164h-703.637c-35.884 0-64.973-29.089-64.973-64.973s29.089-64.973 64.973-64.973v0h703.637l-336.105-336.163c-11.759-11.759-19.033-28.005-19.033-45.949 0-35.888 29.093-64.981 64.981-64.981 17.944 0 34.189 7.273 45.949 19.033l493.005 493.005-493.005 492.947c-11.767 11.789-28.035 19.082-46.007 19.082-17.914 0-34.135-7.246-45.892-18.968l0.002 0.002z" />
<glyph unicode="&#xe911;" glyph-name="arrow-left" horiz-adv-x="1017" d="M584.902 940.947c11.768-11.755 19.048-28.002 19.048-45.949s-7.28-34.194-19.047-45.948l-336.106-336.164h703.637c35.884 0 64.973-29.089 64.973-64.973s-29.089-64.973-64.973-64.973v0h-703.695l336.105-336.163c11.759-11.759 19.033-28.005 19.033-45.949 0-35.888-29.093-64.981-64.981-64.981-17.944 0-34.189 7.273-45.949 19.033l-493.005 493.005 493.005 492.947c11.77 11.806 28.050 19.111 46.036 19.111 17.928 0 34.161-7.258 45.921-18.996l-0.001 0.001z" />
</font></defs></svg>